{
  "required": true,
  "package": "baritone.launch.mixins",
  "refmap": "mixins.baritone.refmap.json",
  "compatibilityLevel": "JAVA_8",
  "verbose": false,
  "injectors": {
    "maxShiftBy": 2
  },
  "client": [
    "MixinBitArray",
    "MixinBlockStateContainer",
    "MixinChatScreen",
    "MixinChunkArray",
    "MixinClientChunkProvider",
    "MixinClientPlayerEntity",
    "MixinClientPlayNetHandler",
    "MixinEntity",
    "MixinGameRenderer",
    "MixinItemStack",
    "MixinLivingEntity",
    "MixinLootContext",
    "MixinMinecraft",
    "MixinNetworkManager",
    "MixinPlayerController",
    "MixinScreen"
  ]
}